76
71
51
76
61
47
50
81
35
10
80
72
70
94
87
58
87
83
70
96
59
11
74
98
7
64
96
23
3
75
85
79
70
29
35
27
78
60
94
75
51
52
60
83
59
41
79
60
24
9
47
66
20
93
12
10
66
75
71
52
36
91
70
1
51
24
6
15
83
10
26
5
54
32
28
31
35
25
57
100
49
74
12
74
68
12
38
60
13
24
32
19
56
44
42
59
20
58
64
41
75
98
46
74
44
50
83
16
99
48
24
78
62
76
64
18
4
68
51
47
47
10
81
23
64
35
2
56
76
28
10
5
54
23
53
80
22
5
26
39
51
7
78
93
62
15
4
1
27
62
52
71
69
34
18
65
59
64
50
90
19
36
44
6
22
86
47
23
88
97
57
100
90
4
19
46
49
92
31
21
38
94
40
33
78
95
42
44
42
30
85
61
50
82
65
45
76
86
29
4
41
27
74
98
16
39
48
36
24
6
46
78
36
63
15
33
75
94
54
61
12
33
7
70
69
65
73
21
18
24
99
22
81
95
80
33
30
11
64
63
86
58
48
73
22
70
79
70
59
30
53
15
70
74
17
16
75
86
69
34
48
99
56
78
9
100
73
6
31
21
68
29
36
47
38
5
95
14
29
45
31
4
39
6
15
52
15
100
69
44
53
85
65
12
100
71
25
42
53
16
20
68
59
31
74
74
15
75
56
95
67
57
90
15
14
36
48
68
100
22
50
39
24
74
70
62
32
2
28
22
21
64
97
53
38
71
98
39
80
82
5
14
93
6
37
64
75
2
68
22
73
81
19
72
82
100
62
50
51
70
18
40
76
50
61
75
4
49
11
40
32
27
40
71
6
93
71
50
24
7
76
13
33
77
75
43
28
63
41
76
58
76
96
95
19
73
12
35
58
64
11
80
72
9
64
65
7
18
93
74
61
48
71
41
80
11
19
51
62
65
8
38
53
19
62
87
50
33
51
32
99
17
98
57
99
29
75
96
95
80
2
35
85
27
54
7
15
82
50
97
83
3
63
39
35
100
15
17
67
31
78
66
28
7
73
71
14
86
73
65
71
79
99
34
97
44
24
10
38
91
68
80
91
79
5
76
4
18
55
85
73
67
92
39
44
35
35
23
16
81
59
72
34
16
84
70
96
98
81
51
48
37
75
100
87
93
35
52
61
74
83
90
66
40
93
48
48
100
85
12
6
14
32
16
85
91
55
44
82
90
27
30
45
21
68
58
71
44
52
64
5
67
99
32
46
50
82
95
40
2
23
39
83
83
93
97
23
3
15
55
57
19
59
46
31
43
49
54
42
32
56
15
37
98
2
12
14
98
59
80
18
42
48
3
48
91
41
16
49
52
61
4
18
86
80
99
3
2
18
87
100
58
48
3
57
66
93
29
69
83
23
2
85
20
60
5
100
36
77
73
62
39
96
90
67
90
87
90
63
98
74
58
46
22
28
28
64
72
71
84
12
6
74
62
39
35
60
45
40
18
1
67
63
64
17
13
4
32
83
18
11
32
18
66
80
23
95
91
58
15
36
77
43
67
13
59
80
88
47
22
67
38
11
99
51
26
27
75
28
11
65
84
46
3
49
12
1
62
50
91
40
96
89
7
60
65
39
94
9
78
22
36
82
95
10
68
26
25
23
73
40
28
35
88
68
12
68
95
9
38
92
29
10
14
30
74
66
100
53
66
25
6
85
88
84
90
96
74
90
62
8
10
39
82
93
29
78
59
74
15
5
51
21
4
66
70
58
79
59
73
55
76
29
71
35
77
74
22
69
18
40
37
80
83
25
74
38
7
76
42
67
73
89
2
38
17
11
63
73
22
39
84
44
23
20
73
72
4
51
92
30
100
78
49
39
95
100
3
71
23
61
64
49
69
60
91
43
67
43
94
76
2
7
31
20
7
99
14
97
68
16
99
78
19
4
98
86
43
61
70
91
76
34
23
17
2
18
17
35
55
62
62
67
19
62
17
84
30
65
91
9
70
68
44
14
75
17
85
20
30
10
74
99
67
94
19
73
73
64
81
15
80
69
68
45
74
5
40
36
89
19
6
9
10
8
26
37
69
18
10
42
53
47
15
94
96
41
53
17
81
98
82
82
43
64
11
10
67
35
100
75
86
60
59
97
86
35
46
48
1
6
72
51
15
71
95
77
62
76
24
48
26
19
20
36
43
46
92
63
97
53
98
1
21
89
49
72
1
50
4
46
70
82
71
48
13
83
11
47
65
99
33
67
9
27
96
78
81
15
10